(i__main__
LogFile
p0
(dp1
S'_installed_files'
p2
(dp3
S'../../../../../../cvmfs/cluster/bes3/Gaudi/GAUDI_v21r6/x86_64-slc5-gcc43-clhep2.0.4.5/GaudiSvc/x86_64-slc5-gcc43-opt/libGaudiSvc.so'
p4
S'../../../../InstallArea/x86_64-slc5-gcc43-opt/lib/libGaudiSvc.so'
p5
ssb.