(i__main__
LogFile
p0
(dp1
S'_installed_files'
p2
(dp3
S'../../../Generator/BabayagaNLO/BabayagaNLO-00-00-01/x86_64-slc6-gcc46-opt/libBabayagaNLO.so'
p4
S'../../../../InstallArea/x86_64-slc6-gcc46-opt/lib/libBabayagaNLO.so'
p5
sS'../../../../../../cvmfs/cluster/bes3/gaudi/GAUDI_v23r9/GaudiSvc/x86_64-slc6-gcc46-opt/libGaudiSvc.so'
p6
S'../../../../InstallArea/x86_64-slc6-gcc46-opt/lib/libGaudiSvc.so'
p7
ssb.