(i__main__
LogFile
p0
(dp1
S'_installed_files'
p2
(dp3
S'../../../../../../../../cluster/him/bes3/dist/6.6.4/Generator/KKMC/KKMC-00-00-26/x86_64-slc5-gcc43-opt/libkkmc.so'
p4
S'../../../InstallArea/x86_64-slc5-gcc43-opt/lib/libkkmc.so'
p5
sS'../../../../../../../../cluster/him/bes3/dist/6.6.4/Generator/Bhwide/Bhwide-00-00-10/x86_64-slc5-gcc43-opt/libbhwide.so'
p6
S'../../../InstallArea/x86_64-slc5-gcc43-opt/lib/libbhwide.so'
p7
sS'../../../../../bes/boss_6.6.4_p01/dist/6.6.4.p01/Generator/KKMC/KKMC-00-00-44/x86_64-slc5-gcc43-opt/libkkmc.so'
p8
S'../../../InstallArea/x86_64-slc5-gcc43-opt/lib/libkkmc.so'
p9
sS'../../../../../../cvmfs/cluster/bes3/Gaudi/GAUDI_v21r6/x86_64-slc5-gcc43-clhep2.0.4.5/GaudiSvc/x86_64-slc5-gcc43-opt/libGaudiSvc.so'
p10
S'../../../InstallArea/x86_64-slc5-gcc43-opt/lib/libGaudiSvc.so'
p11
sS'../../../../../bes/boss_6.6.4_p01/Gaudi/GAUDI_v21r6/x86_64-slc5-gcc43-clhep2.0.4.5/GaudiSvc/x86_64-slc5-gcc43-opt/libGaudiSvc.so'
p12
S'../../../InstallArea/x86_64-slc5-gcc43-opt/lib/libGaudiSvc.so'
p13
sS'../../../Generator/Phokhara/Phokhara-00-00-91/x86_64-slc5-gcc43-opt/libphokhara.so'
p14
S'../../../InstallArea/x86_64-slc5-gcc43-opt/lib/libphokhara.so'
p15
sS'../../../../../bes/boss_6.6.4_p01/dist/6.6.4.p01/Generator/Phokhara/Phokhara-00-00-13/x86_64-slc5-gcc43-opt/libphokhara.so'
p16
S'../../../InstallArea/x86_64-slc5-gcc43-opt/lib/libphokhara.so'
p17
sS'../../../../../../cvmfs/cluster/bes3/dist/6.6.4.p01/Generator/KKMC/KKMC-00-00-44/x86_64-slc5-gcc43-opt/libkkmc.so'
p18
S'../../../InstallArea/x86_64-slc5-gcc43-opt/lib/libkkmc.so'
p19
sS'../../../../../../../../cluster/him/bes3/Gaudi/GAUDI_v21r6/x86_64-slc5-gcc43-clhep2.0.4.5/GaudiSvc/x86_64-slc5-gcc43-opt/libGaudiSvc.so'
p20
S'../../../InstallArea/x86_64-slc5-gcc43-opt/lib/libGaudiSvc.so'
p21
sS'../../../../../../cvmfs/cluster/bes3/dist/6.6.4.p01/Generator/Bhwide/Bhwide-00-00-10/x86_64-slc5-gcc43-opt/libbhwide.so'
p22
S'../../../InstallArea/x86_64-slc5-gcc43-opt/lib/libbhwide.so'
p23
sS'../../../../../bes/boss_6.6.4_p01/dist/6.6.4.p01/Generator/Bhwide/Bhwide-00-00-10/x86_64-slc5-gcc43-opt/libbhwide.so'
p24
S'../../../InstallArea/x86_64-slc5-gcc43-opt/lib/libbhwide.so'
p25
ssb.