(i__main__
LogFile
p0
(dp1
S'_installed_files'
p2
(dp3
S'../../../../../../../../../afs/ihep.ac.cn/bes3/offline/ExternalLib/Gaudi/GAUDI_v21r6/x86_64-slc5-gcc43-clhep2.0.4.5/GaudiSvc/x86_64-slc5-gcc43-opt/libGaudiSvc.so'
p4
S'../../../../../InstallArea/x86_64-slc5-gcc43-opt/lib/libGaudiSvc.so'
p5
sS'../../../../../ExternalLib/Gaudi/GAUDI_v21r6/x86_64-slc5-gcc43-clhep2.0.4.5/GaudiSvc/x86_64-slc5-gcc43-opt/libGaudiSvc.so'
p6
S'../../../../../InstallArea/x86_64-slc5-gcc43-opt/lib/libGaudiSvc.so'
p7
sS'../../../../../../cvmfs/cluster/bes3/Gaudi/GAUDI_v21r6/x86_64-slc5-gcc43-clhep2.0.4.5/GaudiSvc/x86_64-slc5-gcc43-opt/libGaudiSvc.so'
p8
S'../../../../../InstallArea/x86_64-slc5-gcc43-opt/lib/libGaudiSvc.so'
p9
sS'../../../../../../../afs/ihep.ac.cn/bes3/offline/ExternalLib/Gaudi/GAUDI_v21r6/x86_64-slc5-gcc43-clhep2.0.4.5/GaudiSvc/x86_64-slc5-gcc43-opt/libGaudiSvc.so'
p10
S'../../../../../InstallArea/x86_64-slc5-gcc43-opt/lib/libGaudiSvc.so'
p11
sS'../../../../../bes/boss_6.6.4_p01/Gaudi/GAUDI_v21r6/x86_64-slc5-gcc43-clhep2.0.4.5/GaudiSvc/x86_64-slc5-gcc43-opt/libGaudiSvc.so'
p12
S'../../../../../InstallArea/x86_64-slc5-gcc43-opt/lib/libGaudiSvc.so'
p13
sS'../../../../../../../../cluster/him/bes3/Gaudi/GAUDI_v21r6/x86_64-slc5-gcc43-clhep2.0.4.5/GaudiSvc/x86_64-slc5-gcc43-opt/libGaudiSvc.so'
p14
S'../../../../../InstallArea/x86_64-slc5-gcc43-opt/lib/libGaudiSvc.so'
p15
ssb.