(i__main__
LogFile
p0
(dp1
S'_installed_files'
p2
(dp3
S'../../../Generator/BabayagaNLO/BabayagaNLO-00-00-01/x86_64-slc5-gcc43-opt/libBabayagaNLO.so'
p4
S'../../../../InstallArea/x86_64-slc5-gcc43-opt/lib/libBabayagaNLO.so'
p5
sS'../../../../../../cvmfs/cluster/bes3/Gaudi/GAUDI_v21r6/x86_64-slc5-gcc43-clhep2.0.4.5/GaudiSvc/x86_64-slc5-gcc43-opt/libGaudiSvc.so'
p6
S'../../../../InstallArea/x86_64-slc5-gcc43-opt/lib/libGaudiSvc.so'
p7
sS'../../../../../../../afs/ihep.ac.cn/bes3/offline/ExternalLib/Gaudi/GAUDI_v21r6/x86_64-slc5-gcc43-clhep2.0.4.5/GaudiSvc/x86_64-slc5-gcc43-opt/libGaudiSvc.so'
p8
S'../../../../InstallArea/x86_64-slc5-gcc43-opt/lib/libGaudiSvc.so'
p9
sS'../../../Generator/BabayagaNLO/BabayagaNLO-00-00-02/x86_64-slc5-gcc43-opt/libBabayagaNLO.so'
p10
S'../../../../InstallArea/x86_64-slc5-gcc43-opt/lib/libBabayagaNLO.so'
p11
sS'../../../BabayagaNLO/BabayagaNLO-00-00-02/x86_64-slc5-gcc43-opt/libBabayagaNLO.so'
p12
S'../../../InstallArea/x86_64-slc5-gcc43-opt/lib/libBabayagaNLO.so'
p13
sS'../../../../../../../../../../afs/ihep.ac.cn/bes3/offline/ExternalLib/Gaudi/GAUDI_v21r6/x86_64-slc5-gcc43-clhep2.0.4.5/GaudiSvc/x86_64-slc5-gcc43-opt/libGaudiSvc.so'
p14
S'../../../InstallArea/x86_64-slc5-gcc43-opt/lib/libGaudiSvc.so'
p15
ssb.